{
	"__ver": "twz:6",
	"_id": "KRJlIUl1S4OCiZGe8D-V1Q",
	"doc": "Binds an angular expression to the scroll event",
	"module": {
		"_disp": "noonian.api",
		"_id": "NJnfAVnFSmuMcv9voRnaJQ"
	},
	"name": "onScroll",
	"parameters": [
		"$parse"
	],
	"path": "noonian/lib",
	"type": "directive"
}