{
	"__ver": "twz:2",
	"_id": "jqM31gojQcqyKMVrvG7elg",
	"doc": "Capture event of window resize;\n\"debounce\" multiple calls that occurr in quick succession; notify callback when size is stable",
	"module": {
		"_disp": "twzBrowser",
		"_id": "4XJkd5zYRAe6djpKdYmrww"
	},
	"name": "ResizeWatcher",
	"parameters": [
		"$window",
		"$timeout"
	],
	"path": "/twz",
	"type": "factory"
}