{
	"__ver": "twz:1",
	"_id": "6-ZfYeFkSaqhecCPbDihHQ",
	"key": "sys.dbui.bo.MarkerCollection",
	"language": {
		"_disp": "English",
		"_id": "-9vPfv2lEeSFtiimx_V4dw",
		"code": "en"
	},
	"system": false,
	"value": {
		"name": "Name"
	}
}