{
	"__ver": "twz:5",
	"_id": "JC83_IrfTdatCwGP6GOT5A",
	"description": "Original number set described in The Invisible Landscape\nIdentical to sequence listed in McKenna's article \"Derivation of the Timewave from the King Wen Sequence of Hexagrams\" http://www.levity.com/eschaton/waveexplain.html\nAnd DATA.TWZ in v4.22 of Timewave Zero DOS application.",
	"key": "kelley",
	"name": "Kelley",
	"type": "quantification_values",
	"values": [
		0,
		0,
		0,
		2,
		7,
		4,
		3,
		2,
		6,
		8,
		13,
		5,
		26,
		25,
		24,
		15,
		13,
		16,
		14,
		19,
		17,
		24,
		20,
		25,
		63,
		60,
		56,
		55,
		47,
		53,
		36,
		38,
		39,
		43,
		39,
		35,
		22,
		24,
		22,
		21,
		29,
		30,
		27,
		26,
		26,
		21,
		23,
		19,
		57,
		62,
		61,
		55,
		57,
		57,
		35,
		50,
		40,
		29,
		28,
		26,
		50,
		51,
		52,
		61,
		60,
		60,
		42,
		42,
		43,
		43,
		42,
		41,
		45,
		41,
		46,
		23,
		35,
		34,
		21,
		21,
		19,
		51,
		40,
		49,
		29,
		29,
		31,
		40,
		36,
		33,
		29,
		26,
		30,
		16,
		18,
		14,
		66,
		64,
		64,
		56,
		53,
		57,
		49,
		51,
		47,
		44,
		46,
		47,
		56,
		51,
		53,
		25,
		37,
		30,
		31,
		28,
		30,
		36,
		35,
		22,
		28,
		32,
		27,
		32,
		34,
		35,
		52,
		49,
		48,
		51,
		51,
		53,
		40,
		43,
		42,
		26,
		30,
		28,
		55,
		41,
		53,
		52,
		51,
		47,
		61,
		64,
		65,
		39,
		41,
		41,
		22,
		21,
		23,
		43,
		41,
		38,
		24,
		22,
		24,
		14,
		17,
		19,
		52,
		50,
		47,
		42,
		40,
		42,
		26,
		27,
		27,
		34,
		38,
		33,
		44,
		44,
		42,
		41,
		40,
		37,
		33,
		31,
		26,
		44,
		34,
		38,
		46,
		44,
		44,
		36,
		37,
		34,
		36,
		36,
		36,
		38,
		43,
		38,
		27,
		26,
		30,
		32,
		37,
		29,
		50,
		49,
		48,
		29,
		37,
		36,
		10,
		19,
		17,
		24,
		20,
		25,
		53,
		52,
		50,
		53,
		57,
		55,
		34,
		44,
		45,
		13,
		9,
		5,
		34,
		26,
		32,
		31,
		41,
		42,
		31,
		32,
		30,
		21,
		19,
		23,
		43,
		36,
		31,
		47,
		45,
		43,
		47,
		62,
		52,
		41,
		36,
		38,
		46,
		47,
		40,
		43,
		42,
		42,
		36,
		38,
		43,
		53,
		52,
		53,
		47,
		49,
		48,
		47,
		41,
		44,
		15,
		11,
		19,
		51,
		40,
		49,
		23,
		23,
		25,
		34,
		30,
		27,
		7,
		4,
		4,
		32,
		22,
		32,
		68,
		70,
		66,
		68,
		79,
		71,
		43,
		45,
		41,
		38,
		40,
		41,
		24,
		25,
		23,
		35,
		33,
		38,
		43,
		50,
		48,
		18,
		17,
		26,
		34,
		38,
		33,
		38,
		40,
		41,
		34,
		31,
		30,
		33,
		33,
		35,
		28,
		23,
		22,
		26,
		30,
		26,
		75,
		77,
		71,
		62,
		63,
		63,
		37,
		40,
		41,
		49,
		47,
		51,
		32,
		37,
		33,
		49,
		47,
		44,
		32,
		38,
		28,
		38,
		39,
		37,
		22,
		20,
		17,
		44,
		50,
		40,
		32,
		33,
		33,
		40,
		44,
		39,
		32,
		32,
		40,
		39,
		34,
		41,
		33,
		33,
		32,
		32,
		38,
		36,
		22,
		20,
		20,
		12,
		13,
		10
	]
}