{
	"__ver": "twz:2",
	"_id": "bGo0G976Tqa5m0H-2BICsA",
	"description": "64-integer Sequence of Yao deltas in the King Wen arrangement of the I Ching.",
	"key": "fod",
	"name": "King Wen First Order Differences",
	"type": "first_order",
	"values": [
		6,
		2,
		4,
		4,
		4,
		3,
		2,
		4,
		2,
		4,
		6,
		2,
		2,
		4,
		2,
		2,
		6,
		3,
		4,
		3,
		2,
		2,
		2,
		3,
		4,
		2,
		6,
		2,
		6,
		3,
		2,
		3,
		4,
		4,
		4,
		2,
		4,
		6,
		4,
		3,
		2,
		4,
		2,
		3,
		4,
		3,
		2,
		3,
		4,
		4,
		4,
		1,
		6,
		2,
		2,
		3,
		4,
		3,
		2,
		1,
		6,
		3,
		6,
		3
	]
}