{
	"__ver": "twz:51",
	"_id": "pg7dWxcJQh2XJeenSZxPrA",
	"doc": "Second attempt - calculate against function and range.\n\nhttps://www.vanderbilt.edu/AnS/psychology/cogsci/chaos/workshop/Fractals.html\nhttps://www.youtube.com/watch?v=VxYcWn6AQsg",
	"name": "FractalDimensionCalc"
}